{&! DefineOption &builder="dotr.Maia.Builder.BuildActiveRecordBase" !}
{&! DefineOption &FileExtension="cls" !}
{&! DefineOption &BuildDirectory="Model/Base" !}
{&! Copyright !}

using Progress.Lang.*.
using <<ParentPackage>>.*.
using Progress.Data.*.

routine-level on error undo, throw.

class <<AppPackage>>.Model.Base.<<ClassName>> abstract{&! inherits !} :
  def private property DataProvider as dotr.ActiveRecord.Interface.IDataProvider no-undo get . private set.
  
  def private property AvailableFlag as logical no-undo get . set .

  def public property buffer as handle no-undo 
    get():
      return DataProvider:buffer.
    end get . private set.

  def public property query as handle no-undo 
    get():
      return DataProvider:query.
    end get . private set.
  
  def public property rowid as rowid  get. set. /* must be undo, as any error on creation must be reset to ? */
  
  def public property PrivateData  as char no-undo get. set.
  def public property ErrorMessage as char no-undo get. set.
  
  def public property DataFileName as char no-undo get. protected set.
  def public property UpdateType   as char no-undo get. private   set.
  
  def public property SendStompUpdate as logical no-undo init yes get . set .
  def public property InTestMode      as logical no-undo          get . set .
  def public property Preselect			  as logical no-undo          get . set .
  
  def public property Available as logical no-undo
    get():
      return rowid ne ?.
    end get . protected set.
    
  def public property NumRecords as int no-undo
    get():
      return this-object:DataProvider:query:num-results.
    end get . protected set.

  {&! DefineProperties !}
  {&! DefineAssociationProperties !}
  
  constructor <<ClassName>>():
    {&! Basic_StartUp !}
  end constructor.
  
  destructor <<ClassName>>():
    if valid-object(this-object:DataProvider) then delete object this-object:DataProvider.
  
    {&! ActiveRecordModel_Destructor !}
  end destructor.
  
  /** bind a progress data binding source to the query
   * @param binding source to use
   * @return return value
   */

  method public void Bind(p_BindingSource as Progress.Data.BindingSource):
    p_BindingSource:handle = this-object:DataProvider:query.
  end method.  

  /** Creates the buffer handle and buffer fields 
   */

  method protected void StartUp():
    if valid-handle(dotr.ActiveRecord.Partition:AppServer) and dotr.ActiveRecord.Partition:AppServer ne session:handle  
       then this-object:DataProvider = new dotr.ActiveRecord.ServiceProvider("<<TableName>>").
       else this-object:DataProvider = new dotr.ActiveRecord.DataAccess("<<TableName>>").    
  end method.
  
  {&! ActiveRecordModelFind !}

  /** stub method to allow for override
   */

  method public void AfterGet():
  end method.

 /** stub method to allow for override
   */

  method public void BeforeGet():
  end method.

 /** stub method to allow for override
  */

  method public void BeforeCreate():
  end method.
  
 /** stub method to allow for override
  */

  method public void AfterCreate():
  end method.

 /** stub method to allow for override
  */

  method public void BeforeUpdate():
  end method.
  
 /** stub method to allow for override
  */

  method public void AfterUpdate():
  end method.
  
 /** stub method to allow for override
  */

  method public void BeforeRemove():
  end method.
  
 /** stub method to allow for override
  */

  method public void AfterRemove():
  end method.

 /** stub method to allow for override
  */
  method public void NotFound():
  end method.

  /** stub method to allow for override
   */

  method public void Imported():
    this-object:save().
  end method.

  /** stub method to allow for override
  */
  method public void AfterTransaction():
  end method.
  
  /** assigns the buffer fields to the object
   *  @return <<ParentPackage>>.<<ClassName>>  
   */

  method protected <<ParentPackage>>.<<ClassName>> get():
    BeforeGet().
    assign this-object:rowid         = ?
           this-object:UpdateType    = "find".
        
    if not this-object:buffer:available then
    do: 
      NotFound().
      return cast(this-object,<<ParentPackage>>.<<ClassName>>). 
    end.

    assign {&! ActiveRecordModel_AssignFromBuffer !}
    
    {&! ActiveRecordModel_fk_ClearAfterGet !}
           
    AfterGet().
    
    return cast(this-object,<<ParentPackage>>.<<ClassName>>). 
  end.
  
  /** open a query for all records in the <<Table>> table
   */
  method public <<ParentPackage>>.<<ClassName>> all():
    return this-object:FindWhere("").
  end method.

  /** opens a query for records matching the p_Where clause
   *  @param p_Where : the where statement to use  
   *  @return <<ParentPackage>>.<<ClassName>>  
   */
  
  method public <<ParentPackage>>.<<ClassName>> FindWhere (p_Where as char):
    return FindWhere(p_Where,"").
  end method.

  /** opens a query for records matching the p_Where clause
   *  @param p_Where : the where statement to use  
   *  @param p_Sort : the sort statement to use  
   *  @return <<ParentPackage>>.<<ClassName>>  
   */
  
  method public <<ParentPackage>>.<<ClassName>> FindWhere (p_Where as char,p_Sort as char):
    def var lv_Query as char no-undo.
    
    assign lv_Query = substitute("&3 each _<<TableName>> &1 no-lock &2",
                                                if trim(p_Where) begins "where " 
                                                   then p_Where
                                                   else if p_Where ne "" then substitute("where &1",p_Where)
                                                   else "",
                                                p_Sort,
                                                if this-object:preselect then "preselect" else "for").
    this-object:DataProvider:FetchData(lv_query).
    
    return this-object:First().                                                        
  end method.
  
	/** get next record, return available status
		* @return record available 
		*/  
  method public logical NextAvailable():
    if this-object:AvailableFlag then this-object:Next().
    assign this-object:AvailableFlag = yes.
    return this-object:available.
  end method.
  
  /** opens a query for records matching the p_Where clause
   *  @param p_Where : the where statement to use  
   *  @return <<ParentPackage>>.<<ClassName>>  
   */
  
  method public <<ParentPackage>>.<<ClassName>> preselect (p_Where as char):
    return preselect(p_Where,"").
  end method.

  /** opens a query for records matching the p_Where clause
   *  @param p_Where : the where statement to use  
   *  @param p_Sort : the sort statement to use  
   *  @return <<ParentPackage>>.<<ClassName>>  
   */
  
  method public <<ParentPackage>>.<<ClassName>> preselect (p_Where as char,p_Sort as char):
    def var lv_Query as char no-undo.

    assign lv_query = substitute("preselect each _<<TableName>> &1 no-lock &2",
                                                if trim(p_Where) begins "where " 
                                                   then p_Where
                                                   else if p_Where ne "" then substitute("where &1",p_Where)
                                                   else "",
                                                   p_Sort).

    this-object:DataProvider:FetchData(lv_Query).
    
    return this-object:First().                                                        
  end method.
  
  /** gets the first <<ClassName>> of the query
   *  @return <<ParentPackage>>.<<ClassName>>  
   */

  method public <<ParentPackage>>.<<ClassName>> first():
    if this-object:DataProvider:query:is-open then this-object:DataProvider:query:get-first().
    assign this-object:AvailableFlag = no.
    return this-object:Get().
  end method.
    
  /** gets the last <<ClassName>> of the query
   *  @return <<ParentPackage>>.<<ClassName>>  
   */

  method public <<ParentPackage>>.<<ClassName>> last():
    if this-object:DataProvider:query:is-open then this-object:DataProvider:query:get-last().
    return this-object:Get().
  end method.

  /** gets the next <<ClassName>> of the query
   *  @return <<ParentPackage>>.<<ClassName>>  
   */

  method public <<ParentPackage>>.<<ClassName>> next():
    if this-object:DataProvider:query:is-open then this-object:DataProvider:query:get-next().
    return this-object:Get().
  end method.

  /** gets the prev <<ClassName>> of the query
   *  @return <<ParentPackage>>.<<ClassName>>  
   */

  method public <<ParentPackage>>.<<ClassName>> prev():
    if this-object:DataProvider:query:is-open then this-object:DataProvider:query:get-prev().
    return this-object:Get().
  end method.

  /** saves the object attributes to the database
   *  @return <<ParentPackage>>.<<ClassName>>  
   */
  
  method public <<ParentPackage>>.<<ClassName>> save():
    WriteRecord(if this-object:rowid eq ? then "CREATE" else "UPDATE").
    return cast(this-object,<<ParentPackage>>.<<ClassName>>). 
  end method.

  /** removes the object from the database
   */
 
  method public void Remove():
    if not this-object:available then return.
    WriteRecord("Remove").
    return. 
  end method. 

  /** writes the approriate changes to the database
   *  @param p_Mode : create (creates a new <<table>>
   *                : update (saves the changes to the database)
   *                : remove (removes the record from the database)
   */
    
  method protected final void WriteRecord(p_Mode as char):
    def var lv_new as logical no-undo.
    
    def var hUpdateBuffer as handle no-undo.
    
    create buffer hUpdateBuffer for table this-object:buffer 
                                    buffer-name this-object:buffer:name.
    
    assign lv_new                 = this-object:rowid eq ?
           this-object:UpdateType = p_mode.
    
    
    /** try to lock the record, give up after 5 seconds */
    repeat while true stop-after 5 transaction on error undo, throw
                                               on stop undo, leave:

      if p_mode eq "CREATE" then 
      do:
        BeforeCreate(). /** override this method if you want to do stuff before the create statement */ 

        hUpdateBuffer:buffer-create().
        
        {&! NextValue !}
        {&! GenerateGUID !}
        
        assign this-object:rowid = hUpdateBuffer:rowid.
               
        AfterCreate().  /** override this method if you want to do stuff after the create statement */
      end.
      
      else 
      do:
        hUpdateBuffer:find-by-rowid(this-object:rowid,exclusive-lock,no-wait) no-error.
   
        if hUpdateBuffer:locked then next.
        if not hUpdateBuffer:avail then undo, throw new AppError(substitute("Could not find <<TableName>> [&1]",this-object:rowid),0).
      end.
      
      case p_Mode:
        when "Update" or when "Create" then
        do:
          BeforeUpdate().  /** override this method if you want to do stuff before the update statement */
          Validate().
          assign {&! ActiveRecordModel_AssignToBuffer !}
          AfterUpdate().  /** override this method if you want to do stuff after the update statement */
        end.
        
        when "Remove" then
        do:
          BeforeRemove().  /** override this method if you want to do stuff before the remove statement */
          hUpdateBuffer:buffer-delete().
          assign this-object:rowid = ?.
          {&! ActiveRecordModel_fkDeleted !}
          AfterRemove().  /** override this method if you want to do stuff after the remove statement */
        end.
        
      end case.
      {&! SendUpdateMessage !}
      
      hUpdateBuffer:buffer-release().
      
      leave.
      
      catch e as Progress.Lang.Error :
        case e:GetMessageNum(1):
          when 132 then undo, throw new AppError(e:getMessage(1),132).
          otherwise     undo, throw new AppError(e:GetMessage(1),0).
        end case.
      end catch.
    end.
    
    AfterTransaction(). /** override this method if you want to do stuff after the (sub)transaction has ended */
    
    this-object:DataProvider:SaveData(). /** does nothing if local, sends to appserver if not */
    
    return.
    
    finally:
      delete object hUpdateBuffer.
    end finally.
    
  end method.
  
  /** Export ActiveRecord as Json */ 
  method public longchar Export():
    return ExportData("json","single").
  end method.

  /** Export ActiveRecord as Json */ 
  method public longchar ExportQuery():
    return ExportData("json","all").
  end method.
  
  /** take current ActiveRecord and convert to longchar
   *  
   *  gets the current object, converts into a temp-table
   *  and exports the data */ 
  
  method private longchar ExportData(p_format as char,p_Mode as char):
    
    return (new <<AppPackage>>.Model.TempTable.<<ClassName>>()):ExportData(p_format,p_mode,cast(this-object,<<ParentPackage>>.<<ClassName>>)).
    
  end method. 
  
  /** take a json string and assign properties to <<ClassName>>
   *  
   */ 
  
  method public void Import(p_json as longchar):
    this-object:import("json",p_json).
  end method.
  
  /** take a json string and assign properties to <<ClassName>>
   *  
   */ 
  
  method public void Import(p_format as char,p_json as longchar):
    def var tttablehandle as handle no-undo.
    def var tablehandle   as handle no-undo.
    def var tablequery    as handle no-undo.
    def var fieldhandle   as handle no-undo.
    
    def var lv_i as int no-undo.
    
    create temp-table tttablehandle.
    
    tttablehandle:read-json("longchar",p_Json,"empty").
    
    assign tablehandle = tttablehandle:default-buffer-handle.
    
    create query tablequery.
    
    tablequery:add-buffer (tablehandle).

    tablequery:query-prepare(substitute("for each &1 no-lock",tablehandle:name)).
    tablequery:query-open().
    tablequery:get-first().
    
    do while not tablequery:query-off-end on error undo, throw:
      {&! ActiveRecordBase_FindFromJson !}
      
      do lv_i = 1 to tablehandle:num-fields:
        assign fieldhandle = tablehandle:buffer-field(lv_i).
        
        case fieldhandle:name:
          {&! ActiveRecordBase_ImportFromJson !}
        end case.
        
      end.
      
      this-object:Imported().
      
      finally:
        tablequery:get-next().
      end finally.
    end.
    
    finally:
      delete object tablequery.
      delete object tttablehandle.
    end finally.
    
  end method.
  
	/** Load db into model
		* @param 
		* @return 
		*/     
		
  method public void AppServerLoad():
    this-object:all().
  end method.

  /** Load db into model
    * @param 
    * @return 
    */     
    
  method public void AppServerSave():
  end method.
  		
  {&! ActiveRecordHelper_GetMethods &source="dotr/Maia/Template/builder/ActiveRecordModelGetMethod.i" !}
  {&! ActiveRecordGetValidation &source="dotr/Maia/Template/builder/ActiveRecordModel_Validate.i !}
  {&! ActiveRecordModel_fkCascadeDelete !}

end class.
