/* ==========================================================================
   Method: <<Method>>
   
   <<Description>> 
   
   Parameters:
      <<Parameters>>

   Returns:
      <<ReturnValue>>
   ==========================================================================*/ 
