 DEFINE {&AccessMode} temp-table TTValidation no-undo serialize-name "Validation" {&reference-only}
  
      field PropertyRowid     as rowid
      field oObject as progress.lang.Object
      
      index Property
        PropertyRowid.
      